{
  "components": [
    {
      "clearOnHide": false,
      "key": "undefinedPanel",
      "input": false,
      "title": "افزودن محصول",
      "theme": "success",
      "tableView": false,
      "components": [
        {
          "input": true,
          "tableView": true,
          "inputType": "text",
          "inputMask": "",
          "label": "مکان",
          "key": "facilityId",
          "placeholder": "",
          "prefix": "",
          "suffix": "",
          "multiple": false,
          "defaultValue": "",
          "protected": false,
          "unique": false,
          "persistent": true,
          "hidden": false,
          "clearOnHide": true,
          "validate": {
            "required": false,
            "minLength": "",
            "maxLength": "",
            "pattern": "",
            "custom": "",
            "customPrivate": false
          },
          "conditional": {
            "show": "",
            "when": null,
            "eq": ""
          },
          "type": "textfield",
          "$$hashKey": "object:271",
          "hideLabel": false,
          "labelPosition": "top",
          "tags": [],
          "properties": {
            "": ""
          },
          "lockKey": true,
          "disabled": true,
          "isNew": false
        },
        {
          "clearOnHide": false,
          "input": false,
          "tableView": false,
          "key": "undefinedPanelColumns",
          "columns": [
            {
              "components": [
                {
                  "input": true,
                  "tableView": true,
                  "inputType": "number",
                  "label": "حداقل سهام",
                  "key": "minimumStock",
                  "placeholder": "",
                  "prefix": "",
                  "suffix": "",
                  "defaultValue": "",
                  "protected": false,
                  "persistent": true,
                  "hidden": false,
                  "clearOnHide": true,
                  "validate": {
                    "required": false,
                    "min": "",
                    "max": "",
                    "step": "any",
                    "integer": "",
                    "multiple": "",
                    "custom": ""
                  },
                  "type": "number",
                  "$$hashKey": "object:662",
                  "hideLabel": false,
                  "labelPosition": "top",
                  "tags": [],
                  "conditional": {
                    "show": "",
                    "when": null,
                    "eq": ""
                  },
                  "properties": {
                    "": ""
                  },
                  "lockKey": true,
                  "isNew": false
                }
              ],
              "width": 6,
              "offset": 0,
              "push": 0,
              "pull": 0,
              "$$hashKey": "object:408"
            },
            {
              "components": [
                {
                  "input": true,
                  "tableView": true,
                  "label": "محصول",
                  "key": "productId",
                  "placeholder": "",
                  "data": {
                    "values": [
                      {
                        "value": "",
                        "label": ""
                      }
                    ],
                    "json": "",
                    "url": "",
                    "resource": "",
                    "custom": "var token = null;\nvar productName = data.productName;\nvar _entity = \"products\";\nvar orderByField = null;\nvar pageSize = 200;\nvar host = window.location.origin;\nvar url = host+ \"/rest/m1/products/default?pageNoLimit=true\";\nif (pageSize) url += \"?pageSize=\" + pageSize;\nif (productName) url += \"&productName=\" + productName;\nif (_entity) url += \"&_entity=\" + _entity;\nif (orderByField) url += \"&orderByField=\" + orderByField;\nvar xhttp = new XMLHttpRequest();\nxhttp.onreadystatechange = function () { if (this.readyState == 4 && this.status == 200) values = JSON.parse(xhttp.responseText);};\nxhttp.open(\"GET\", url, false);\nif (token) {xhttp.setRequestHeader('Authorization', token);} else {xhttp.withCredentials = true;}\nxhttp.send();"
                  },
                  "dataSrc": "custom",
                  "valueProperty": "productId",
                  "defaultValue": "",
                  "refreshOn": "",
                  "filter": "",
                  "authenticate": false,
                  "template": "<span>{{ item.description}}</span>",
                  "multiple": false,
                  "protected": false,
                  "unique": false,
                  "persistent": true,
                  "hidden": false,
                  "clearOnHide": true,
                  "validate": {
                    "required": true
                  },
                  "type": "select",
                  "$$hashKey": "object:504",
                  "hideLabel": false,
                  "labelPosition": "top",
                  "tags": [],
                  "conditional": {
                    "show": "",
                    "when": null,
                    "eq": ""
                  },
                  "properties": {
                    "": ""
                  },
                  "lockKey": true
                }
              ],
              "width": 6,
              "offset": 0,
              "push": 0,
              "pull": 0,
              "$$hashKey": "object:409"
            }
          ],
          "type": "columns",
          "$$hashKey": "object:403",
          "hideLabel": false,
          "tags": [],
          "conditional": {
            "show": "",
            "when": null,
            "eq": ""
          },
          "properties": {
            "": ""
          }
        },
        {
          "clearOnHide": false,
          "input": false,
          "tableView": false,
          "key": "undefinedPanelColumns2",
          "columns": [
            {
              "components": [
                {
                  "input": true,
                  "tableView": true,
                  "inputType": "number",
                  "label": "تعداد روز حمل",
                  "key": "daysToShip",
                  "placeholder": "",
                  "prefix": "",
                  "suffix": "",
                  "defaultValue": "",
                  "protected": false,
                  "persistent": true,
                  "hidden": false,
                  "clearOnHide": true,
                  "validate": {
                    "required": false,
                    "min": "",
                    "max": "",
                    "step": "any",
                    "integer": "",
                    "multiple": "",
                    "custom": ""
                  },
                  "type": "number",
                  "$$hashKey": "object:1300",
                  "hideLabel": false,
                  "labelPosition": "top",
                  "tags": [],
                  "conditional": {
                    "show": "",
                    "when": null,
                    "eq": ""
                  },
                  "properties": {
                    "": ""
                  },
                  "lockKey": true
                }
              ],
              "width": 6,
              "offset": 0,
              "push": 0,
              "pull": 0,
              "$$hashKey": "object:842"
            },
            {
              "components": [
                {
                  "input": true,
                  "tableView": true,
                  "inputType": "number",
                  "label": "تعداد مجدد سفارش",
                  "key": "reorderQuantity",
                  "placeholder": "",
                  "prefix": "",
                  "suffix": "",
                  "defaultValue": "",
                  "protected": false,
                  "persistent": true,
                  "hidden": false,
                  "clearOnHide": true,
                  "validate": {
                    "required": false,
                    "min": "",
                    "max": "",
                    "step": "any",
                    "integer": "",
                    "multiple": "",
                    "custom": ""
                  },
                  "type": "number",
                  "$$hashKey": "object:979",
                  "hideLabel": false,
                  "labelPosition": "top",
                  "tags": [],
                  "conditional": {
                    "show": "",
                    "when": null,
                    "eq": ""
                  },
                  "properties": {
                    "": ""
                  },
                  "lockKey": true
                }
              ],
              "width": 6,
              "offset": 0,
              "push": 0,
              "pull": 0,
              "$$hashKey": "object:843"
            }
          ],
          "type": "columns",
          "$$hashKey": "object:837",
          "hideLabel": false,
          "tags": [],
          "conditional": {
            "show": "",
            "when": null,
            "eq": ""
          },
          "properties": {
            "": ""
          }
        },
        {
          "input": true,
          "label": "افزودن",
          "tableView": false,
          "key": "undefined",
          "size": "md",
          "leftIcon": "",
          "rightIcon": "",
          "block": false,
          "action": "submit",
          "disableOnInvalid": false,
          "theme": "success",
          "type": "button",
          "tags": [],
          "conditional": {
            "show": "",
            "when": null,
            "eq": ""
          },
          "properties": {
            "": ""
          },
          "$$hashKey": "object:677",
          "hideLabel": false,
          "isNew": false
        }
      ],
      "type": "panel",
      "breadcrumb": "default",
      "$$hashKey": "object:179",
      "hideLabel": false,
      "tags": [],
      "conditional": {
        "show": "",
        "when": null,
        "eq": ""
      },
      "properties": {
        "": ""
      }
    }
  ],
  "display": "form",
  "page": 0
}