{
  "components": [
    {
      "clearOnHide": false,
      "key": "undefinedPanel",
      "input": false,
      "title": "جزئیات درخواست",
      "theme": "primary",
      "tableView": false,
      "components": [
        {
          "clearOnHide": false,
          "input": false,
          "tableView": false,
          "key": "undefinedPanelColumns6",
          "columns": [
            {
              "components": [
                {
                  "type": "jalaali",
                  "conditional": {
                    "show": "",
                    "when": null,
                    "eq": ""
                  },
                  "key": "requestDate",
                  "protected": false,
                  "persistent": false,
                  "processVariable": true,
                  "disabled": true,
                  "label": "تاریخ درخواست",
                  "hideLabel": false,
                  "$$hashKey": "object:12100"
                }
              ],
              "width": 6,
              "offset": 0,
              "push": 0,
              "pull": 0,
              "$$hashKey": "object:8923"
            },
            {
              "components": [
                {
                  "input": true,
                  "tableView": true,
                  "inputType": "text",
                  "inputMask": "",
                  "label": "شناسه درخواست",
                  "key": "requestId",
                  "placeholder": "",
                  "prefix": "",
                  "suffix": "",
                  "multiple": false,
                  "defaultValue": "",
                  "protected": false,
                  "unique": false,
                  "persistent": true,
                  "hidden": false,
                  "clearOnHide": true,
                  "validate": {
                    "required": false,
                    "minLength": "",
                    "maxLength": "",
                    "pattern": "",
                    "custom": "",
                    "customPrivate": false
                  },
                  "conditional": {
                    "show": "",
                    "when": null,
                    "eq": ""
                  },
                  "type": "textfield",
                  "$$hashKey": "object:9594",
                  "hideLabel": false,
                  "labelPosition": "top",
                  "tags": [],
                  "properties": {
                    "": ""
                  },
                  "lockKey": true,
                  "disabled": true
                }
              ],
              "width": 6,
              "offset": 0,
              "push": 0,
              "pull": 0,
              "$$hashKey": "object:8924"
            }
          ],
          "type": "columns",
          "$$hashKey": "object:8918",
          "hideLabel": false,
          "tags": [],
          "conditional": {
            "show": "",
            "when": null,
            "eq": ""
          },
          "properties": {
            "": ""
          }
        },
        {
          "clearOnHide": false,
          "input": false,
          "tableView": false,
          "key": "undefinedPanelColumns7",
          "columns": [
            {
              "components": [
                {
                  "input": true,
                  "tableView": true,
                  "inputType": "text",
                  "inputMask": "",
                  "label": "تخصیص",
                  "key": "displayAssigneeId",
                  "placeholder": "",
                  "prefix": "",
                  "suffix": "",
                  "multiple": false,
                  "defaultValue": "",
                  "protected": false,
                  "unique": false,
                  "persistent": true,
                  "hidden": false,
                  "clearOnHide": true,
                  "validate": {
                    "required": false,
                    "minLength": "",
                    "maxLength": "",
                    "pattern": "",
                    "custom": "",
                    "customPrivate": false
                  },
                  "conditional": {
                    "show": "",
                    "when": null,
                    "eq": ""
                  },
                  "type": "textfield",
                  "$$hashKey": "object:12822",
                  "hideLabel": false,
                  "labelPosition": "top",
                  "tags": [],
                  "properties": {
                    "": ""
                  },
                  "lockKey": true,
                  "disabled": true
                }
              ],
              "width": 6,
              "offset": 0,
              "push": 0,
              "pull": 0,
              "$$hashKey": "object:9256"
            },
            {
              "components": [
                {
                  "input": true,
                  "tableView": true,
                  "inputType": "text",
                  "inputMask": "",
                  "label": "ثبت شده به وسیله ی",
                  "key": "filedByPartyId",
                  "placeholder": "",
                  "prefix": "",
                  "suffix": "",
                  "multiple": false,
                  "defaultValue": "",
                  "protected": false,
                  "unique": false,
                  "persistent": true,
                  "hidden": false,
                  "clearOnHide": true,
                  "validate": {
                    "required": false,
                    "minLength": "",
                    "maxLength": "",
                    "pattern": "",
                    "custom": "",
                    "customPrivate": false
                  },
                  "conditional": {
                    "show": "",
                    "when": null,
                    "eq": ""
                  },
                  "type": "textfield",
                  "$$hashKey": "object:12405",
                  "hideLabel": false,
                  "labelPosition": "top",
                  "tags": [],
                  "properties": {
                    "": ""
                  },
                  "lockKey": true,
                  "disabled": true
                }
              ],
              "width": 6,
              "offset": 0,
              "push": 0,
              "pull": 0,
              "$$hashKey": "object:9257"
            }
          ],
          "type": "columns",
          "$$hashKey": "object:9251",
          "hideLabel": false,
          "tags": [],
          "conditional": {
            "show": "",
            "when": null,
            "eq": ""
          },
          "properties": {
            "": ""
          }
        },
        {
          "clearOnHide": false,
          "input": false,
          "tableView": false,
          "key": "undefinedPanelColumns",
          "columns": [
            {
              "components": [
                {
                  "input": true,
                  "tableView": true,
                  "inputType": "text",
                  "inputMask": "",
                  "label": "تخصیص به",
                  "key": "assignToPartyId",
                  "placeholder": "",
                  "prefix": "",
                  "suffix": "",
                  "multiple": false,
                  "defaultValue": "",
                  "protected": false,
                  "unique": false,
                  "persistent": true,
                  "hidden": false,
                  "clearOnHide": true,
                  "validate": {
                    "required": false,
                    "minLength": "",
                    "maxLength": "",
                    "pattern": "",
                    "custom": "",
                    "customPrivate": false
                  },
                  "conditional": {
                    "show": "",
                    "when": null,
                    "eq": ""
                  },
                  "type": "textfield",
                  "labelPosition": "top",
                  "tags": [],
                  "properties": {
                    "": ""
                  },
                  "lockKey": true,
                  "$$hashKey": "object:13538",
                  "hideLabel": false
                }
              ],
              "width": 6,
              "offset": 0,
              "push": 0,
              "pull": 0,
              "$$hashKey": "object:410"
            },
            {
              "components": [
                {
                  "input": true,
                  "tableView": true,
                  "label": "فروشگاه",
                  "key": "productStoreId",
                  "placeholder": "",
                  "data": {
                    "values": [
                      {
                        "value": "",
                        "label": ""
                      }
                    ],
                    "json": "",
                    "url": "",
                    "resource": "",
                    "custom": "var token = null;\nvar orderByField = \"productStoreId\";\nvar organizationPartyId =data.organizationPartyId;\n// var host = data._coreHostRemote + \"/rest/s1/\";\nvar host = window.location.origin + \"/rest/s1/\";\nvar url = host + \"mantle/products/stores?pagesize=10000\";\nif (organizationPartyId) url += \"&organizationPartyId=\" + organizationPartyId;\nif (orderByField) url += \"&orderByField=\" + orderByField;\nvar xhttp = new XMLHttpRequest();\nxhttp.onreadystatechange = function () { if (this.readyState == 4 && this.status == 200) values = JSON.parse(xhttp.responseText);};\nxhttp.open(\"GET\", url, false);\nif (token) {xhttp.setRequestHeader('Authorization', token);} else {xhttp.withCredentials = true;}\nxhttp.send();"
                  },
                  "dataSrc": "custom",
                  "valueProperty": "productStoreId",
                  "defaultValue": "",
                  "refreshOn": "",
                  "filter": "",
                  "authenticate": false,
                  "template": "<span>{{ item.storeName }}</span>",
                  "multiple": false,
                  "protected": false,
                  "unique": false,
                  "persistent": true,
                  "hidden": false,
                  "clearOnHide": true,
                  "validate": {
                    "required": false
                  },
                  "type": "select",
                  "labelPosition": "top",
                  "tags": [],
                  "conditional": {
                    "show": "",
                    "when": null,
                    "eq": ""
                  },
                  "properties": {
                    "": ""
                  },
                  "lockKey": true,
                  "$$hashKey": "object:13255",
                  "hideLabel": false
                }
              ],
              "width": 6,
              "offset": 0,
              "push": 0,
              "pull": 0,
              "$$hashKey": "object:411"
            }
          ],
          "type": "columns",
          "$$hashKey": "object:405",
          "hideLabel": false,
          "tags": [],
          "conditional": {
            "show": "",
            "when": null,
            "eq": ""
          },
          "properties": {
            "": ""
          }
        },
        {
          "clearOnHide": false,
          "input": false,
          "tableView": false,
          "key": "undefinedPanelColumns3",
          "columns": [
            {
              "components": [
                {
                  "input": true,
                  "tableView": true,
                  "label": "مکان",
                  "key": "facilityId",
                  "placeholder": "",
                  "data": {
                    "values": [
                      {
                        "value": "",
                        "label": "",
                        "$$hashKey": "object:1846"
                      }
                    ],
                    "json": "",
                    "url": "",
                    "resource": "",
                    "custom": "var token = null;\nvar orderByField = \"facilityName\";\nvar facilityTypeEnumId = data.facilityTypeEnumId;\nvar pageSize = 10000;\nvar host = window.location.origin+\"/rest/s1/\";\nvar url = host +  \"mantle/facilities?pageNoLimit=true\";\nif(pageSize)url +=\"&pageSize=\"+pageSize;\nif (facilityTypeEnumId) url += \"&facilityTypeEnumId=\" + facilityTypeEnumId;\nif (orderByField) url += \"&orderByField=\" + orderByField;\nvar xhttp = new XMLHttpRequest();\nxhttp.onreadystatechange = function () { if (this.readyState == 4 && this.status == 200) values = JSON.parse(xhttp.responseText);};\nxhttp.open(\"GET\", url, false);\nif (token) {xhttp.setRequestHeader('Authorization', token);} else {xhttp.withCredentials = true;}\nxhttp.send();"
                  },
                  "dataSrc": "custom",
                  "valueProperty": "facilityId",
                  "defaultValue": "",
                  "refreshOn": "",
                  "filter": "",
                  "authenticate": false,
                  "template": "<span>{{ item.facilityName }}</span>",
                  "multiple": false,
                  "protected": false,
                  "unique": false,
                  "persistent": true,
                  "hidden": false,
                  "clearOnHide": true,
                  "validate": {
                    "required": false
                  },
                  "type": "select",
                  "$$hashKey": "object:1755",
                  "hideLabel": false,
                  "labelPosition": "top",
                  "tags": [],
                  "conditional": {
                    "show": "",
                    "when": null,
                    "eq": ""
                  },
                  "properties": {
                    "": ""
                  },
                  "lockKey": true
                }
              ],
              "width": 6,
              "offset": 0,
              "push": 0,
              "pull": 0,
              "$$hashKey": "object:1380"
            },
            {
              "components": [
                {
                  "input": true,
                  "tableView": true,
                  "label": "پروژه",
                  "key": "rootWorkEffortId",
                  "placeholder": "",
                  "data": {
                    "values": [
                      {
                        "value": "",
                        "label": "",
                        "$$hashKey": "object:1629"
                      }
                    ],
                    "json": "",
                    "url": "",
                    "resource": "",
                    "custom": "var workEffortTypeEnumId = \"WetProject\";\nvar rootWorkEffortId = data.rootWorkEffortId;\nvar parentWorkEffortId = data.parentWorkEffortId;\nvar token = null;var host = window.location.origin+\"/rest/s1/\";\nvar url = host + \"mantle/workEfforts?pageSize=10000\";\nif(workEffortTypeEnumId) url+='&workEffortTypeEnumId='+workEffortTypeEnumId;\nif(rootWorkEffortId) url+='&rootWorkEffortId='+rootWorkEffortId;\nif(parentWorkEffortId) url+='&parentWorkEffortId='+parentWorkEffortId;\nvar xhttp = new XMLHttpRequest();\nxhttp.onreadystatechange = function () { if (this.readyState == 4 && this.status == 200) values = JSON.parse(xhttp.responseText)};\nxhttp.open(\"GET\", url, false);\nif (token) {xhttp.setRequestHeader('Authorization', token);} else {xhttp.withCredentials = true;}\nxhttp.send();"
                  },
                  "dataSrc": "custom",
                  "valueProperty": "workEffortId",
                  "defaultValue": "",
                  "refreshOn": "",
                  "filter": "",
                  "authenticate": false,
                  "template": "<span>{{ item.workEffortId }}</span>",
                  "multiple": false,
                  "protected": false,
                  "unique": false,
                  "persistent": true,
                  "hidden": false,
                  "clearOnHide": true,
                  "validate": {
                    "required": false
                  },
                  "type": "select",
                  "$$hashKey": "object:1539",
                  "hideLabel": false,
                  "labelPosition": "top",
                  "tags": [],
                  "conditional": {
                    "show": "",
                    "when": null,
                    "eq": ""
                  },
                  "properties": {
                    "": ""
                  },
                  "lockKey": true
                }
              ],
              "width": 6,
              "offset": 0,
              "push": 0,
              "pull": 0,
              "$$hashKey": "object:1381"
            }
          ],
          "type": "columns",
          "$$hashKey": "object:1375",
          "hideLabel": false,
          "tags": [],
          "conditional": {
            "show": "",
            "when": null,
            "eq": ""
          },
          "properties": {
            "": ""
          }
        },
        {
          "clearOnHide": false,
          "input": false,
          "tableView": false,
          "key": "undefinedPanelColumns4",
          "columns": [
            {
              "components": [
                {
                  "type": "jalaali",
                  "conditional": {
                    "show": "",
                    "when": null,
                    "eq": ""
                  },
                  "key": "responseRequiredDate",
                  "protected": false,
                  "persistent": false,
                  "processVariable": true,
                  "disabled": false,
                  "label": "موعد مقرر",
                  "$$hashKey": "object:14105",
                  "hideLabel": false
                }
              ],
              "width": 6,
              "offset": 0,
              "push": 0,
              "pull": 0,
              "$$hashKey": "object:1991"
            },
            {
              "components": [
                {
                  "input": true,
                  "tableView": true,
                  "label": "اولویت",
                  "key": "priority",
                  "placeholder": "",
                  "data": {
                    "values": [
                      {
                        "value": "1",
                        "label": "1",
                        "$$hashKey": "object:13918"
                      },
                      {
                        "value": "2",
                        "label": "2",
                        "$$hashKey": "object:13919"
                      },
                      {
                        "value": "3",
                        "label": "3",
                        "$$hashKey": "object:13920"
                      },
                      {
                        "value": "4",
                        "label": "4",
                        "$$hashKey": "object:13921"
                      },
                      {
                        "value": "5",
                        "label": "5",
                        "$$hashKey": "object:13922"
                      },
                      {
                        "value": "6",
                        "label": "6",
                        "$$hashKey": "object:13923"
                      },
                      {
                        "value": "7",
                        "label": "7",
                        "$$hashKey": "object:13924"
                      },
                      {
                        "value": "8",
                        "label": "8",
                        "$$hashKey": "object:13925"
                      },
                      {
                        "value": "9",
                        "label": "9",
                        "$$hashKey": "object:13926"
                      }
                    ],
                    "json": "",
                    "url": "",
                    "resource": "",
                    "custom": ""
                  },
                  "dataSrc": "values",
                  "valueProperty": "",
                  "defaultValue": "",
                  "refreshOn": "",
                  "filter": "",
                  "authenticate": false,
                  "template": "<span>{{ item.label }}</span>",
                  "multiple": false,
                  "protected": false,
                  "unique": false,
                  "persistent": true,
                  "hidden": false,
                  "clearOnHide": true,
                  "validate": {
                    "required": false
                  },
                  "type": "select",
                  "labelPosition": "top",
                  "tags": [],
                  "conditional": {
                    "show": "",
                    "when": null,
                    "eq": ""
                  },
                  "properties": {
                    "": ""
                  },
                  "lockKey": true,
                  "$$hashKey": "object:13904",
                  "hideLabel": false
                }
              ],
              "width": 6,
              "offset": 0,
              "push": 0,
              "pull": 0,
              "$$hashKey": "object:1992"
            }
          ],
          "type": "columns",
          "$$hashKey": "object:1986",
          "hideLabel": false,
          "tags": [],
          "conditional": {
            "show": "",
            "when": null,
            "eq": ""
          },
          "properties": {
            "": ""
          }
        },
        {
          "clearOnHide": false,
          "input": false,
          "tableView": false,
          "key": "undefinedPanelColumns2",
          "columns": [
            {
              "components": [
                {
                  "input": true,
                  "tableView": true,
                  "label": "نتیجه",
                  "key": "requestResolutionEnumId",
                  "placeholder": "",
                  "data": {
                    "values": [
                      {
                        "value": "",
                        "label": ""
                      }
                    ],
                    "json": "",
                    "url": "",
                    "resource": "",
                    "custom": "var token = null;\nvar parentEnumId = data.parentEnumId;\nvar enumTypeId = \"RequestResolution\";\nvar orderByField = null;\nvar pageSize = 200;\nvar host = window.location.origin;\nvar url = host+ \"/rest/s1/moqui/basic/enums\";\nif (pageSize) url += \"?pageSize=\" + pageSize;\nif (parentEnumId) url += \"&parentEnumId=\" + parentEnumId;\nif (enumTypeId) url += \"&enumTypeId=\" + enumTypeId;\nif (orderByField) url += \"&orderByField=\" + orderByField;\nvar xhttp = new XMLHttpRequest();\nxhttp.onreadystatechange = function () { if (this.readyState == 4 && this.status == 200) values = JSON.parse(xhttp.responseText);};\nxhttp.open(\"GET\", url, false);\nif (token) {xhttp.setRequestHeader('Authorization', token);} else {xhttp.withCredentials = true;}\nxhttp.send();"
                  },
                  "dataSrc": "custom",
                  "valueProperty": "enumId",
                  "defaultValue": "",
                  "refreshOn": "",
                  "filter": "",
                  "authenticate": false,
                  "template": "<span>{{ item.description }}</span>",
                  "multiple": false,
                  "protected": false,
                  "unique": false,
                  "persistent": true,
                  "hidden": false,
                  "clearOnHide": true,
                  "validate": {
                    "required": false
                  },
                  "type": "select",
                  "labelPosition": "top",
                  "tags": [],
                  "conditional": {
                    "show": "",
                    "when": null,
                    "eq": ""
                  },
                  "properties": {
                    "": ""
                  },
                  "lockKey": true,
                  "$$hashKey": "object:14829",
                  "hideLabel": false
                }
              ],
              "width": 6,
              "offset": 0,
              "push": 0,
              "pull": 0,
              "$$hashKey": "object:851"
            },
            {
              "components": [
                {
                  "input": true,
                  "tableView": true,
                  "label": "نوع",
                  "key": "requestTypeEnumId",
                  "placeholder": "",
                  "data": {
                    "values": [
                      {
                        "value": "",
                        "label": ""
                      }
                    ],
                    "json": "",
                    "url": "",
                    "resource": "",
                    "custom": "var token = null;\nvar parentEnumId = data.parentEnumId;\nvar enumTypeId = \"RequestType\";\nvar orderByField = null;\nvar pageSize = 200;\nvar host = window.location.origin;\nvar url = host+ \"/rest/s1/moqui/basic/enums\";\nif (pageSize) url += \"?pageSize=\" + pageSize;\nif (parentEnumId) url += \"&parentEnumId=\" + parentEnumId;\nif (enumTypeId) url += \"&enumTypeId=\" + enumTypeId;\nif (orderByField) url += \"&orderByField=\" + orderByField;\nvar xhttp = new XMLHttpRequest();\nxhttp.onreadystatechange = function () { if (this.readyState == 4 && this.status == 200) values = JSON.parse(xhttp.responseText);};\nxhttp.open(\"GET\", url, false);\nif (token) {xhttp.setRequestHeader('Authorization', token);} else {xhttp.withCredentials = true;}\nxhttp.send();"
                  },
                  "dataSrc": "custom",
                  "valueProperty": "enumId",
                  "defaultValue": "",
                  "refreshOn": "",
                  "filter": "",
                  "authenticate": false,
                  "template": "<span>{{ item.description }}</span>",
                  "multiple": false,
                  "protected": false,
                  "unique": false,
                  "persistent": true,
                  "hidden": false,
                  "clearOnHide": true,
                  "validate": {
                    "required": false
                  },
                  "type": "select",
                  "labelPosition": "top",
                  "tags": [],
                  "conditional": {
                    "show": "",
                    "when": null,
                    "eq": ""
                  },
                  "properties": {
                    "": ""
                  },
                  "lockKey": true,
                  "$$hashKey": "object:14465",
                  "hideLabel": false,
                  "isNew": false
                }
              ],
              "width": 6,
              "offset": 0,
              "push": 0,
              "pull": 0,
              "$$hashKey": "object:852"
            }
          ],
          "type": "columns",
          "$$hashKey": "object:846",
          "hideLabel": false,
          "tags": [],
          "conditional": {
            "show": "",
            "when": null,
            "eq": ""
          },
          "properties": {
            "": ""
          }
        },
        {
          "clearOnHide": false,
          "input": false,
          "tableView": false,
          "key": "undefinedPanelColumns5",
          "columns": [
            {
              "components": [],
              "width": 6,
              "offset": 0,
              "push": 0,
              "pull": 0,
              "$$hashKey": "object:5857"
            },
            {
              "components": [
                {
                  "input": true,
                  "tableView": true,
                  "inputType": "text",
                  "inputMask": "",
                  "label": "نام درخواست",
                  "key": "requestName",
                  "placeholder": "",
                  "prefix": "",
                  "suffix": "",
                  "multiple": false,
                  "defaultValue": "",
                  "protected": false,
                  "unique": false,
                  "persistent": true,
                  "hidden": false,
                  "clearOnHide": true,
                  "validate": {
                    "required": false,
                    "minLength": "",
                    "maxLength": "",
                    "pattern": "",
                    "custom": "",
                    "customPrivate": false
                  },
                  "conditional": {
                    "show": "",
                    "when": null,
                    "eq": ""
                  },
                  "type": "textfield",
                  "labelPosition": "top",
                  "tags": [],
                  "properties": {
                    "": ""
                  },
                  "lockKey": true,
                  "$$hashKey": "object:15489",
                  "hideLabel": false
                }
              ],
              "width": 6,
              "offset": 0,
              "push": 0,
              "pull": 0,
              "$$hashKey": "object:5858"
            }
          ],
          "type": "columns",
          "$$hashKey": "object:5852",
          "hideLabel": false,
          "tags": [],
          "conditional": {
            "show": "",
            "when": null,
            "eq": ""
          },
          "properties": {
            "": ""
          }
        },
        {
          "input": true,
          "tableView": true,
          "label": "توضیحات",
          "key": "description",
          "placeholder": "",
          "prefix": "",
          "suffix": "",
          "rows": 3,
          "multiple": false,
          "defaultValue": "",
          "protected": false,
          "persistent": true,
          "hidden": false,
          "wysiwyg": false,
          "clearOnHide": true,
          "validate": {
            "required": false,
            "minLength": "",
            "maxLength": "",
            "pattern": "",
            "custom": ""
          },
          "type": "textarea",
          "$$hashKey": "object:6807",
          "hideLabel": false,
          "labelPosition": "top",
          "tags": [],
          "conditional": {
            "show": "",
            "when": null,
            "eq": ""
          },
          "properties": {
            "": ""
          },
          "lockKey": true
        }
      ],
      "type": "panel",
      "breadcrumb": "default",
      "$$hashKey": "object:179",
      "hideLabel": false,
      "tags": [],
      "conditional": {
        "show": "",
        "when": null,
        "eq": ""
      },
      "properties": {
        "": ""
      }
    },
    {
      "input": true,
      "label": "به روز رسانی",
      "tableView": false,
      "key": "undefined",
      "size": "md",
      "leftIcon": "",
      "rightIcon": "",
      "block": false,
      "action": "submit",
      "disableOnInvalid": false,
      "theme": "primary",
      "type": "button",
      "$$hashKey": "object:938",
      "hideLabel": false,
      "tags": [],
      "conditional": {
        "show": "",
        "when": null,
        "eq": ""
      },
      "properties": {
        "": ""
      }
    }
  ],
  "display": "form",
  "page": 0
}